{
  "openapi": "3.0.1",
  "info": {
    "title": "Pricer API",
    "version": "v1"
  },
  "paths": {
    "/Quote": {
      "get": {
        "tags": [
          "Quote"
        ],
        "parameters": [
          {
            "name": "ClientId",
            "in": "query",
            "schema": {
              "type": "integer",
              "format": "int32"
            }
          },
          {
            "name": "ProductId",
            "in": "query",
            "schema": {
              "type": "integer",
              "format": "int32"
            }
          }
        ],
        "responses": {
          "200": {
            "description": "Success",
            "content": {
              "text/plain": {
                "schema": {
                  "$ref": "#/components/schemas/QuoteResponseDto"
                }
              },
              "application/json": {
                "schema": {
                  "$ref": "#/components/schemas/QuoteResponseDto"
                }
              },
              "text/json": {
                "schema": {
                  "$ref": "#/components/schemas/QuoteResponseDto"
                }
              }
            }
          }
        }
      }
    },
    "/QuoteWithSpread": {
      "get": {
        "tags": [
          "QuoteWithSpread"
        ],
        "responses": {
          "200": {
            "description": "Success",
            "content": {
              "text/plain": {
                "schema": {
                  "$ref": "#/components/schemas/ProductQuoteWithSpreadResponseDto"
                }
              },
              "application/json": {
                "schema": {
                  "$ref": "#/components/schemas/ProductQuoteWithSpreadResponseDto"
                }
              },
              "text/json": {
                "schema": {
                  "$ref": "#/components/schemas/ProductQuoteWithSpreadResponseDto"
                }
              }
            }
          }
        }
      }
    }
  },
  "components": {
    "schemas": {
      "QuoteDto": {
        "type": "object",
        "properties": {
          "clientId": {
            "type": "integer",
            "format": "int32"
          },
          "productId": {
            "type": "integer",
            "format": "int32"
          },
          "bid": {
            "type": "number",
            "format": "double"
          },
          "ask": {
            "type": "number",
            "format": "double"
          },
          "quoteTime": {
            "type": "string",
            "format": "date-time"
          }
        },
        "additionalProperties": false
      },
      "ResponseStatus": {
        "enum": [
          "Success",
          "Error"
        ],
        "type": "string"
      },
      "QuoteResponseDto": {
        "type": "object",
        "properties": {
          "quote": {
            "$ref": "#/components/schemas/QuoteDto"
          },
          "status": {
            "$ref": "#/components/schemas/ResponseStatus"
          },
          "error": {
            "type": "string",
            "nullable": true
          }
        },
        "additionalProperties": false
      },
      "SpreadDto": {
        "type": "object",
        "properties": {
          "spreadValue": {
            "type": "string",
            "nullable": true
          },
          "spreadClass": {
            "type": "string",
            "nullable": true
          }
        },
        "additionalProperties": false
      },
      "ProductQuoteWithSpreadDto": {
        "type": "object",
        "properties": {
          "productQuote": {
            "$ref": "#/components/schemas/QuoteDto"
          },
          "spread": {
            "$ref": "#/components/schemas/SpreadDto"
          },
          "bid": {
            "type": "number",
            "format": "double"
          },
          "ask": {
            "type": "number",
            "format": "double"
          }
        },
        "additionalProperties": false
      },
      "ProductQuoteWithSpreadResponseDto": {
        "type": "object",
        "properties": {
          "quotes": {
            "type": "array",
            "items": {
              "$ref": "#/components/schemas/ProductQuoteWithSpreadDto"
            },
            "nullable": true
          },
          "status": {
            "$ref": "#/components/schemas/ResponseStatus"
          },
          "error": {
            "type": "string",
            "nullable": true
          }
        },
        "additionalProperties": false
      }
    },
    "securitySchemes": {
      "Bearer": {
        "type": "apiKey",
        "description": "Please insert JWT with Bearer into field",
        "name": "Authorization",
        "in": "header"
      }
    }
  },
  "security": [
    {
      "Bearer": [ ]
    }
  ]
}